\relax 
\citation{Gerber2015,Hooten2015}
\citation{Hastie2009,Sra2012}
\@writefile{toc}{\contentsline {section}{\numberline {S1}Supporting tables}{1}\protected@file@percent }
\@writefile{lot}{\contentsline {table}{\numberline {S1}{\ignorespaces  Parameter estimates from the \emph  {a priori} specified model for inference about effects of winter weather on butterfly population growth. }}{1}\protected@file@percent }
\newlabel{tab:undstd-mod-table}{{S1}{1}}
\newlabel{tab:understand-tab}{{S1}{1}}
\@writefile{toc}{\contentsline {section}{\numberline {S2}Statistical regularization}{1}\protected@file@percent }
\newlabel{regularization}{{S2}{1}}
\citation{Hooten2015}
\citation{Sra2012}
\citation{Mullainathan2017}
\citation{Frank1993}
\newlabel{eqn:regFun}{{S3}{2}}
\citation{Hoerl1970}
\@writefile{lof}{\contentsline {figure}{\numberline {S1}{\ignorespaces Conceptual figure of how LASSO and Ridge Regression work, for the case of a single parameter $\beta _1$. In both panels, the dash-dot red curve shows the Loss function term in eqn. \textup  {\hbox {\mathsurround \z@ \normalfont  (\ignorespaces S3\hbox {}\unskip \@@italiccorr )}} as a function of the coefficient estimate. Without the Regulator term, the parameter estimate would be the value of $\beta _1$ at which this curve is minimized (open red circle). The dotted curve shows the Regulator function, $|\beta _1|$ for LASSO and $\beta _1^2$ for Ridge Regression. When $\gamma _1=1$ eqn. \textup  {\hbox {\mathsurround \z@ \normalfont  (\ignorespaces S3\hbox {}\unskip \@@italiccorr )}} equals Loss + Regulator (solid purple curve) and the parameter estimate is shrunk towards zero (solid purple circle), moreso by LASSO in this example though that is not always the case. When $\gamma _1=2$ eqn. \textup  {\hbox {\mathsurround \z@ \normalfont  (\ignorespaces S3\hbox {}\unskip \@@italiccorr )}} equals Loss + 2*Regulator (dashed purple curve) and the parameter estimate (solid purple square) is even closer to zero. The kink at zero in LASSO regulator function results in the parameter estimate being reduced to zero. Because the Ridge Regression regulator function is flat at zero, Loss + $\gamma _1$*Regulator is not flat at zero for any value of $\gamma _1$, so the parameter estimate is never exactly zero. }}{3}\protected@file@percent }
\newlabel{reg-ex}{{S1}{3}}
\@writefile{toc}{\contentsline {subsection}{\numberline {S2.1}Ridge regression}{3}\protected@file@percent }
\newlabel{ridge-regression}{{S2.1}{3}}
\newlabel{eqn:ridge}{{S4}{3}}
\citation{Hooten2015}
\citation{Gerber2015,Hooten2015,Tredennick2017a}
\citation{Tibshirani1996}
\citation{Zou2005}
\citation{Tibshirani1996,Zou2005}
\@writefile{toc}{\contentsline {subsection}{\numberline {S2.2}Least absolute shrinkage and selection operator (LASSO)}{4}\protected@file@percent }
\newlabel{least-absolute-shrinkage-and-selection-operator-LASSO}{{S2.2}{4}}
\newlabel{eqn:lasso}{{S5}{4}}
\citation{Hooten2015}
\citation{Zou2005}
\citation{Friedman2010}
\citation{Friedman2010}
\citation{Li2010}
\citation{bondell2010joint}
\citation{schelldorfer2011estimation}
\citation{sidi2017}
\citation{wilms2017bigtime}
\@writefile{toc}{\contentsline {subsection}{\numberline {S2.3}Elastic net}{5}\protected@file@percent }
\newlabel{elastic-net}{{S2.3}{5}}
\newlabel{eqn:enet}{{S6}{5}}
\newlabel{eqn:enet-func}{{S7}{5}}
\@writefile{toc}{\contentsline {subsection}{\numberline {S2.4}Regularization of mixed-effects models}{6}\protected@file@percent }
\newlabel{regularization-of-mixed-effects-models}{{S2.4}{6}}
\@writefile{toc}{\contentsline {section}{\numberline {S3}Model validation}{6}\protected@file@percent }
\newlabel{model-validation}{{S3}{6}}
\citation{Roberts2017}
\@writefile{toc}{\contentsline {subsection}{\numberline {S3.1}Out-of-sample validation}{7}\protected@file@percent }
\newlabel{out-of-sample-validation}{{S3.1}{7}}
\citation{Gerber2015,Hooten2015}
\@writefile{toc}{\contentsline {subsection}{\numberline {S3.2}Cross-validation}{8}\protected@file@percent }
\newlabel{cross-validation}{{S3.2}{8}}
\bibstyle{ecology}
\bibdata{lemonade_ms}
\bibcite{bondell2010joint}{{1}{2010}{{Bondell et~al.}}{{Bondell, Krishna, and Ghosh}}}
\bibcite{Frank1993}{{2}{1993}{{Frank and Friedman}}{{}}}
\bibcite{Friedman2010}{{3}{2010}{{Friedman et~al.}}{{Friedman, Hastie, and Tibshirani}}}
\bibcite{Gerber2015}{{4}{2015}{{Gerber et~al.}}{{Gerber, Kendall, Hooten, Dubovsky, and Drewien}}}
\bibcite{Hastie2009}{{5}{2009}{{Hastie et~al.}}{{Hastie, Tibshirani, and Friedman}}}
\bibcite{Hoerl1970}{{6}{1970}{{Hoerl and Kennard}}{{}}}
\bibcite{Hooten2015}{{7}{2015}{{Hooten and Hobbs}}{{}}}
\bibcite{Li2010}{{8}{2010}{{Li and Liny}}{{}}}
\bibcite{Mullainathan2017}{{9}{2017}{{Mullainathan and Spiess}}{{}}}
\bibcite{Roberts2017}{{10}{2017}{{Roberts et~al.}}{{Roberts, Bahn, Ciuti, Boyce, Elith, Guillera-Arroita, Hauenstein, Lahoz-Monfort, Schr{\"{o}}der, Thuiller, Warton, Wintle, Hartig, and Dormann}}}
\bibcite{schelldorfer2011estimation}{{11}{2011}{{Schelldorfer et~al.}}{{Schelldorfer, B{\"u}hlmann, and de~Geer}}}
\bibcite{sidi2017}{{12}{2017}{{Sidi}}{{}}}
\bibcite{Sra2012}{{13}{2012}{{Sra et~al.}}{{Sra, Nowozin, and Wright}}}
\bibcite{Tibshirani1996}{{14}{1996}{{Tibshirani}}{{}}}
\bibcite{Tredennick2017a}{{15}{2017}{{Tredennick et~al.}}{{Tredennick, Hooten, and Adler}}}
\bibcite{wilms2017bigtime}{{16}{2017}{{Wilms et~al.}}{{Wilms, Matteson, Bien, and Basu}}}
\bibcite{Zou2005}{{17}{2005}{{Zou and Hastie}}{{}}}
