\relax 
\citation{Ellison2014}
\citation{Shmueli2010}
\citation{Breiman2001,Zou2005,Hastie2009}
\citation{Rawlings1998}
\citation{Nicholson1954,Andrewartha1954}
\citation{VandePol2016a}
\citation{Teller2016}
\citation{Teller2016}
\citation{Dalgleish2011}
\citation{Teller2016}
\citation{Tredennick2017a}
\citation{Tredennick2017a}
\citation{Matter2017}
\citation{taylor2015statistical}
\citation{meinshausen2010stability}
\citation{shen2004inference,lockhart2014significance,g2016sequential}
\citation{Hooten2015}
\newlabel{sec:ModSelInf}{{}{4}}
\citation{Zuur2010}
\citation{VandePol2016a}
\citation{Clark2001,Petchey2015,Houlahan2017,Dietze2018,Harris2018}
\citation{Houlahan2017,Dietze2018}
\citation{Mullainathan2017}
\citation{Mullainathan2017}
\citation{Teller2016,VandePol2016a}
\citation{Kass1995,Hooten2015}
\citation{Link2006}
\citation{Burnham2002}
\citation{Hooten2015}
\citation{Akaike1973}
\citation{Spiegelhalter2002}
\citation{Schwarz1978}
\citation{Watanabe2013}
\citation{Gelman2014,Hooten2015}
\citation{Hastie2009}
\citation{Hooten2015}
\citation{Hastie2009}
\newlabel{eqn:aic}{{2}{8}}
\citation{Gerber2015}
\citation{Tredennick2017a}
\citation{Roberts2017}
\citation{wood-gamair}
\citation{Roland2016article,Roland2016dryad}
\citation{Roland2016article}
\citation{Roland2016article}
\citation{Roland2016article}
\citation{Radchuk2013}
\citation{Matter2015}
\citation{Matter2017}
\citation{Bates2015}
\citation{Roland2016article}
\citation{VandePol2016a}
\citation{Roland2016article}
\citation{Roland2016article}
\newlabel{example-modeling-for-understanding}{{}{13}}
\citation{Bates2015}
\citation{Roland2016article}
\newlabel{example-modeling-for-prediction}{{}{14}}
\citation{Hooten2015}
\citation{Harris2018,Tredennick2017a}
\citation{Harris2018}
\citation{Yuan2006,Kyung2010}
\citation{Hooten2015}
\citation{Adler2007}
\citation{Dalgleish2011}
\citation{Adler2018}
\citation{Sequeira2016}
\citation{Veloz2012}
\citation{Borer2014}
\newlabel{guidance}{{}{17}}
\newlabel{acknowledgments}{{}{18}}
\bibstyle{EcologyLetters}
\bibdata{lemonade_ms}
\citation{Bien2013}
\@writefile{lot}{\contentsline {table}{\numberline {1}{\ignorespaces Parameter estimates from the final model, with covariate selection done by dropping terms individually from the full model. The $p$ values shown are from \texttt  {drop1.merMod} applied to the full model with \texttt  {test=Chisq}, not a $t$-test. $P$(BH) and $P$(Holm) are the \texttt  {drop1} $P$ values adjusted for multiple comparisons using the BH and Holm methods, respectively. }}{19}}
\newlabel{tab:drop1-table}{{1}{19}}
\newlabel{tab:drop1-tab}{{1}{19}}
\@writefile{lot}{\contentsline {table}{\numberline {2}{\ignorespaces Model selection guidance}}{19}}
\newlabel{tab:guidance-table}{{2}{19}}
\@writefile{lot}{\contentsline {table}{\numberline {3}{\ignorespaces Some computing resources for model selection in R and Python.}}{20}}
\newlabel{tab:resources-table}{{3}{20}}
\@writefile{lof}{\contentsline {figure}{\numberline {1}{\ignorespaces Venn diagram showing the (non)overlap of three modeling goals in ecology: data exploration, inference, and prediction or forecasting.}}{21}}
\newlabel{venn}{{1}{21}}
\@writefile{lof}{\contentsline {figure}{\numberline {2}{\ignorespaces Time series of \textit  {Parnassius smintheus} butterly abundance from Roland and Matter (2016). Each line is a subpopulation from one of 11 distinct meadows. $N$ is population size; $R$ is estimated population growth rate. }}{22}}
\newlabel{data-plot}{{2}{22}}
\@writefile{lof}{\contentsline {figure}{\numberline {3}{\ignorespaces Scatterplots of potential covariates vsersus \emph  {P. smintheus} population growth rate ($R_t$). Covariates were screened before plotting, and only those with correlation higher than the arbitrarily chosen threshold ($|\rho |>0.3$) were plotted. Lines are fitted linear models for each subpopulation (meadow). }}{23}}
\newlabel{data-viz}{{3}{23}}
\@writefile{lof}{\contentsline {figure}{\numberline {4}{\ignorespaces Sliding window analysis for mean temperature. The colors show the differences in AIC between a no-climate null model and models fit to temperature averaged over windows that open and close a certain number of months before June, when populations are censused. }}{24}}
\newlabel{climwin}{{4}{24}}
\@writefile{lof}{\contentsline {figure}{\numberline {5}{\ignorespaces The model we built for inference shows an interactive effect of early winter maximum temperature and snow on \textit  {Parnassius smintheus} population growth rates. The predicted growth rates shown here assume mean population size. Low snow corresponds to the 10\% quantile for snow fall, and high snow corresponds to the 90\% quantile. }}{25}}
\newlabel{fig:inference}{{5}{25}}
\@writefile{lof}{\contentsline {figure}{\numberline {6}{\ignorespaces Comparison of out-of-sample predictions of butterfly population growth, on the log scale, from a no-climate null model and a ridge regression that included eight climate covariates. The black 1:1 line shows perfect agreement between observations and predictions. Different hold-out years are shown by different color-symbol combinations. Mean squared errors were 0.26 and 0.22 for the null model and ridge regression, respectively. }}{26}}
\newlabel{fig:obs-pred}{{6}{26}}
\@writefile{lof}{\contentsline {figure}{\numberline {7}{\ignorespaces (A) An example of how cross-validated mean square error depends on the penalty term in the ridge regression, $\gamma $. For this example, data from 1995 were held out. (B) Regularization, implemented with ridge regression, shrinks the coefficient estimates toward zero relative to a model with the same climate covariates fit with no penalty. }}{27}}
\newlabel{fig:ridge-coefs}{{7}{27}}
\citation{Gerber2015,Hooten2015}
\citation{Hastie2009,Sra2012}
\@writefile{toc}{\contentsline {section}{\numberline {A}Supplementary tables}{1}}
\@writefile{lot}{\contentsline {table}{\numberline {SI-1}{\ignorespaces  Parameter estimates from the \emph  {a priori} specified model for inference about effects of winter weather on butterfly population growth. }}{1}}
\newlabel{tab:undstd-mod-table}{{SI-1}{1}}
\newlabel{tab:understand-tab}{{SI-1}{1}}
\@writefile{toc}{\contentsline {section}{\numberline {B}Statistical regularization}{1}}
\newlabel{regularization}{{B}{1}}
\citation{Hooten2015}
\citation{Sra2012}
\citation{Mullainathan2017}
\citation{Frank1993}
\citation{Hoerl1970}
\newlabel{eqn:regFun}{{SI-3}{2}}
\@writefile{toc}{\contentsline {subsection}{\numberline {B.1}Ridge regression}{2}}
\newlabel{ridge-regression}{{B.1}{2}}
\newlabel{eqn:ridge}{{SI-4}{2}}
\citation{Hooten2015}
\citation{Gerber2015,Hooten2015,Tredennick2017a}
\citation{Tibshirani1996}
\@writefile{lof}{\contentsline {figure}{\numberline {SI-1}{\ignorespaces Conceptual figure of how LASSO and Ridge Regression work, for the case of a single parameter $\beta _1$. In both panels, the dash-dot red curve shows the Loss function term in eqn. \textup  {\hbox {\mathsurround \z@ \normalfont  (\ignorespaces \G@refundefinedtrue \text  {\normalfont  \bfseries  ??}\GenericWarning  {               }{LaTeX Warning: Reference `eqn:regFun' on page 3 undefined}\unskip \@@italiccorr )}} as a function of the coefficient estimate. Without the Regulator term, the parameter estimate would be the value of $\beta _1$ at which this curve is minimized (open red circle). The dotted curve shows the Regulator function, $|\beta _1|$ for LASSO and $\beta _1^2$ for Ridge Regression. When $\gamma _1=1$ eqn. \textup  {\hbox {\mathsurround \z@ \normalfont  (\ignorespaces \G@refundefinedtrue \text  {\normalfont  \bfseries  ??}\GenericWarning  {               }{LaTeX Warning: Reference `eqn:regFun' on page 3 undefined}\unskip \@@italiccorr )}} equals Loss + Regulator (solid purple curve) and the parameter estimate is shrunk towards zero (solid purple circle), moreso by LASSO in this example though that is not always the case. When $\gamma _1=2$ eqn. \textup  {\hbox {\mathsurround \z@ \normalfont  (\ignorespaces \G@refundefinedtrue \text  {\normalfont  \bfseries  ??}\GenericWarning  {               }{LaTeX Warning: Reference `eqn:regFun' on page 3 undefined}\unskip \@@italiccorr )}} equals Loss + 2*Regulator (dashed purple curve) and the parameter estimate (solid purple square) is even closer to zero. The kink at zero in LASSO regulator function results in the parameter estimate being reduced to zero. Because the Ridge Regression regulator function is flat at zero, Loss + $\gamma _1$*Regulator is not flat at zero for any value of $\gamma _1$, so the parameter estimate is never exactly zero. }}{3}}
\newlabel{reg-ex}{{SI-1}{3}}
\@writefile{toc}{\contentsline {subsection}{\numberline {B.2}Least absolute shrinkage and selection operator (LASSO)}{3}}
\newlabel{least-absolute-shrinkage-and-selection-operator-LASSO}{{B.2}{3}}
\citation{Zou2005}
\citation{Tibshirani1996,Zou2005}
\citation{Hooten2015}
\citation{Zou2005}
\citation{Friedman2010}
\citation{Friedman2010}
\newlabel{eqn:lasso}{{SI-5}{4}}
\@writefile{toc}{\contentsline {subsection}{\numberline {B.3}Elastic net}{4}}
\newlabel{elastic-net}{{B.3}{4}}
\newlabel{eqn:enet}{{SI-6}{4}}
\newlabel{eqn:enet-func}{{SI-7}{4}}
\citation{Li2010}
\citation{bondell2010joint}
\citation{schelldorfer2011estimation}
\citation{sidi2017}
\citation{wilms2017bigtime}
\@writefile{toc}{\contentsline {subsection}{\numberline {B.4}Regularization of mixed-effects models}{5}}
\newlabel{regularization-of-mixed-effects-models}{{B.4}{5}}
\@writefile{toc}{\contentsline {section}{\numberline {C}Model validation}{5}}
\newlabel{model-validation}{{C}{5}}
\citation{Roberts2017}
\@writefile{toc}{\contentsline {subsection}{\numberline {C.1}Out-of-sample validation}{6}}
\newlabel{out-of-sample-validation}{{C.1}{6}}
\citation{Gerber2015,Hooten2015}
\@writefile{toc}{\contentsline {subsection}{\numberline {C.2}Cross-validation}{7}}
\newlabel{cross-validation}{{C.2}{7}}
